dump.vcd
$date
	Sun Jul 13 10:51:25 2025
$end
$version
	QuestaSim Version 2024.3_1
$end
$timescale
	1ns
$end

$scope module top $end

$scope module pif $end
$var wire 1 ! rclk $end
$var wire 1 " rst $end
$var wire 1 # wclk $end
$var reg 1 $ empty $end
$var reg 1 % full $end
$var reg 1 & overflow $end
$var reg 8 ' rdata [7:0] $end
$var reg 1 ( ren $end
$var reg 1 ) underflow $end
$var reg 8 * wdata [7:0] $end
$var reg 1 + wen $end

$scope begin rd_drv_cb $end
$var event 1 , rd_drv_cb_event $end
$var reg 1 - empty $end
$var reg 1 . full $end
$var reg 1 / overflow $end
$var reg 8 0 rdata [7:0] $end
$var reg 1 1 ren $end
$var reg 1 2 underflow $end
$upscope $end

$scope begin rd_mon_cb $end
$var event 1 3 rd_mon_cb_event $end
$var reg 1 4 empty $end
$var reg 1 5 full $end
$var reg 1 6 overflow $end
$var reg 8 7 rdata [7:0] $end
$var reg 1 8 ren $end
$var reg 1 9 underflow $end
$upscope $end

$scope begin wr_drv_cb $end
$var event 1 : wr_drv_cb_event $end
$var reg 1 ; empty $end
$var reg 1 < full $end
$var reg 1 = overflow $end
$var reg 1 > underflow $end
$var reg 8 ? wdata [7:0] $end
$var reg 1 @ wen $end
$upscope $end

$scope begin wr_mon_cb $end
$var event 1 A wr_mon_cb_event $end
$var reg 1 B empty $end
$var reg 1 C full $end
$var reg 1 D overflow $end
$var reg 1 E underflow $end
$var reg 8 F wdata [7:0] $end
$var reg 1 G wen $end
$upscope $end
$upscope $end
$upscope $end
$enddefinitions $end
#0
$dumpvars
1"
0!
0#
0$
0%
0&
bx '
0(
0)
b0 *
0+
1,
x-
x.
x/
bx 0
x1
x2
13
x4
x5
x6
bx 7
x8
x9
1:
x;
x<
x=
x>
bx ?
x@
1A
xB
xC
xD
xE
bx F
xG
$end
#2
1#
1$
0$
0<
0;
0=
0>
0G
b0 F
0C
0B
0D
0E
1:
1A
#4
0#
#5
1!
0"
1$
0.
1-
0/
02
08
05
14
06
09
1,
13
#6
1#
1;
1:
1A
1@
b1100010 ?
#7
1+
b1100010 *
#8
0#
#10
0!
1#
1B
b1100010 F
1G
1:
1A
0@
b0 ?
#11
0+
b0 *
#12
0#
#14
1#
b0 F
0G
1:
1A
#15
1!
0$
04
0-
1,
13
#16
0#
#18
1#
0;
0B
1:
1A
#20
0!
0#
#22
1#
1:
1A
#24
0#
#25
1!
1,
13
#26
1#
1:
1A
1@
b111100 ?
#27
1+
b111100 *
#28
0#
#30
0!
1#
b111100 F
1G
1:
1A
0@
b0 ?
#31
0+
b0 *
#32
0#
#34
1#
b0 F
0G
1:
1A
1@
b10100011 ?
#35
1!
1,
13
11
1+
b10100011 *
#36
0#
1(
#38
1#
b10100011 F
1G
1:
1A
0@
b0 ?
#39
0+
b0 *
#40
0!
0#
#42
1#
b0 F
0G
1:
1A
#44
0#
#45
1!
b1100010 '
18
b1100010 7
b1100010 0
1,
13
01
#46
1#
1:
1A
0(
#48
0#
#50
0!
1#
1:
1A
#52
0#
#54
1#
1:
1A
#55
1!
08
1,
13
#56
0#
#58
1#
1:
1A
#60
0!
0#
#62
1#
1:
1A
#64
0#
#65
1!
1,
13
#66
1#
1:
1A
#68
0#
#70
0!
1#
1:
1A
1@
b11011010 ?
#71
1+
b11011010 *
#72
0#
#74
1#
b11011010 F
1G
1:
1A
0@
b0 ?
#75
1!
1,
13
0+
b0 *
#76
0#
#78
1#
b0 F
0G
1:
1A
1@
b11110101 ?
#79
1+
b11110101 *
#80
0!
0#
#82
1#
b11110101 F
1G
1:
1A
0@
b0 ?
#83
0+
b0 *
#84
0#
#85
1!
1,
13
#86
1#
b0 F
0G
1:
1A
#88
0#
#90
0!
1#
1:
1A
1@
b1001000 ?
#91
1+
b1001000 *
#92
0#
#94
1#
b1001000 F
1G
1:
1A
0@
b0 ?
#95
1!
1,
13
11
0+
b0 *
#96
0#
1(
#98
1#
b0 F
0G
1:
1A
#100
0!
0#
#102
1#
1:
1A
#104
0#
#105
1!
b111100 '
18
b111100 7
b111100 0
1,
13
01
#106
1#
1:
1A
0(
#108
0#
#110
0!
1#
1:
1A
#112
0#
#114
1#
1:
1A
#115
1!
08
1,
13
#116
0#
#118
1#
1:
1A
#120
0!
0#
#122
1#
1:
1A
#124
0#
#125
1!
1,
13
#126
1#
1:
1A
1@
b1100100 ?
#127
1+
b1100100 *
#128
0#
#130
0!
1#
b1100100 F
1G
1:
1A
0@
b0 ?
#131
0+
b0 *
#132
0#
#134
1#
b0 F
0G
1:
1A
1@
b1000001 ?
#135
1!
1,
13
11
1+
b1000001 *
#136
0#
1(
#138
1#
b1000001 F
1G
1:
1A
0@
b0 ?
#139
0+
b0 *
#140
0!
0#
#142
1#
b0 F
0G
1:
1A
#144
0#
#145
1!
b10100011 '
18
b10100011 7
b10100011 0
1,
13
01
#146
1#
1:
1A
1@
b10001010 ?
0(
#147
1+
b10001010 *
#148
0#
#150
0!
1#
b10001010 F
1G
1:
1A
0@
b0 ?
#151
0+
b0 *
#152
0#
#154
1#
b0 F
0G
1:
1A
#155
1!
08
1,
13
#156
0#
#158
1#
1:
1A
#160
0!
0#
#162
1#
1:
1A
#164
0#
#165
1!
1,
13
#166
1#
1:
1A
#168
0#
#170
0!
1#
1:
1A
1@
b10110010 ?
#171
1+
b10110010 *
#172
0#
#174
1#
b10110010 F
1G
1:
1A
0@
b0 ?
#175
1!
1,
13
0+
b0 *
#176
0#
#178
1#
b0 F
0G
1:
1A
#180
0!
0#
#182
1#
1:
1A
#184
0#
#185
1!
1,
13
#186
1#
1:
1A
1@
b1011110 ?
#187
1+
b1011110 *
#188
0#
#190
0!
1#
b1011110 F
1G
1:
1A
0@
b0 ?
#191
0+
b0 *
#192
0#
#194
1#
b0 F
0G
1:
1A
1@
b10001011 ?
#195
1!
1,
13
1+
b10001011 *
#196
0#
#198
1#
b10001011 F
1G
1:
1A
0@
b0 ?
#199
0+
b0 *
#200
0!
0#
#202
1#
b0 F
0G
1:
1A
#204
0#
#205
1!
1,
13
11
#206
1#
1:
1A
1(
#208
0#
#210
0!
1#
1:
1A
#212
0#
#214
1#
1:
1A
#215
1!
b11011010 '
18
b11011010 7
b11011010 0
1,
13
01
#216
0#
0(
#218
1#
1:
1A
#220
0!
0#
#222
1#
1:
1A
1@
b10001100 ?
#223
1+
b10001100 *
#224
0#
#225
1!
08
1,
13
#226
1#
b10001100 F
1G
1:
1A
0@
b0 ?
#227
0+
b0 *
#228
0#
#230
0!
1#
b0 F
0G
1:
1A
#232
0#
#234
1#
1:
1A
#235
1!
1,
13
#236
0#
#238
1#
1:
1A
1@
b11100 ?
#239
1+
b11100 *
#240
0!
0#
#242
1#
b11100 F
1G
1:
1A
0@
b0 ?
#243
0+
b0 *
#244
0#
#245
1!
1,
13
#246
1#
b0 F
0G
1:
1A
#248
0#
#250
0!
1#
1:
1A
#252
0#
#254
1#
1:
1A
#255
1!
1,
13
#256
0#
#258
1#
1:
1A
#260
0!
0#
#262
1#
1:
1A
#264
0#
#265
1!
1,
13
#266
1#
1:
1A
#268
0#
#270
0!
1#
1:
1A
1@
b10101000 ?
#271
1+
b10101000 *
#272
0#
#274
1#
b10101000 F
1G
1:
1A
0@
b0 ?
#275
1!
1,
13
0+
b0 *
#276
0#
#278
1#
b0 F
0G
1:
1A
#280
0!
0#
#282
1#
1:
1A
#284
0#
#285
1!
1,
13
11
#286
1#
1:
1A
1(
#288
0#
#290
0!
1#
1:
1A
#292
0#
#294
1#
1:
1A
#295
1!
b11110101 '
18
b11110101 7
b11110101 0
1,
13
01
#296
0#
0(
#298
1#
1:
1A
#300
0!
0#
#302
1#
1:
1A
1@
b11101 ?
#303
1+
b11101 *
#304
0#
#305
1!
08
1,
13
#306
1#
b11101 F
1G
1:
1A
0@
b0 ?
#307
0+
b0 *
#308
0#
#310
0!
1#
b0 F
0G
1:
1A
#312
0#
#314
1#
1:
1A
#315
1!
1,
13
#316
0#
#318
1#
1:
1A
#320
0!
0#
#322
1#
1:
1A
#324
0#
#325
1!
1,
13
#326
1#
1:
1A
#328
0#
#330
0!
1#
1:
1A
#332
0#
#334
1#
1:
1A
#335
1!
1,
13
11
#336
0#
1(
#338
1#
1:
1A
#340
0!
0#
#342
1#
1:
1A
#344
0#
#345
1!
b1001000 '
18
b1001000 7
b1001000 0
1,
13
01
#346
1#
1:
1A
0(
#348
0#
#350
0!
1#
1:
1A
#352
0#
#354
1#
1:
1A
#355
1!
08
1,
13
#356
0#
#358
1#
1:
1A
#360
0!
0#
#362
1#
1:
1A
#364
0#
#365
1!
1,
13
#366
1#
1:
1A
#368
0#
#370
0!
1#
1:
1A
#372
0#
#374
1#
1:
1A
#375
1!
1,
13
#376
0#
#378
1#
1:
1A
#380
0!
0#
#382
1#
1:
1A
#384
0#
#385
1!
1,
13
11
#386
1#
1:
1A
1(
#388
0#
#390
0!
1#
1:
1A
#392
0#
#394
1#
1:
1A
#395
1!
b1100100 '
18
b1100100 7
b1100100 0
1,
13
01
#396
0#
0(
#398
1#
1:
1A
#400
0!
0#
#402
1#
1:
1A
#404
0#
#405
1!
08
1,
13
#406
1#
1:
1A
#408
0#
#410
0!
1#
1:
1A
#412
0#
#414
1#
1:
1A
#415
1!
1,
13
#416
0#
#418
1#
1:
1A
#420
0!
0#
#422
1#
1:
1A
#424
0#
#425
1!
1,
13
11
#426
1#
1:
1A
1(
#428
0#
#430
0!
1#
1:
1A
#432
0#
#434
1#
1:
1A
#435
1!
b1000001 '
18
b1000001 7
b1000001 0
1,
13
01
#436
0#
0(
#438
1#
1:
1A
#440
0!
0#
#442
1#
1:
1A
#444
0#
#445
1!
08
1,
13
#446
1#
1:
1A
#448
0#
#450
0!
1#
1:
1A
#452
0#
#454
1#
1:
1A
#455
1!
1,
13
#456
0#
#458
1#
1:
1A
#460
0!
0#
#462
1#
1:
1A
#464
0#
#465
1!
1,
13
#466
1#
1:
1A
#468
0#
#470
0!
1#
1:
1A
#472
0#
#474
1#
1:
1A
#475
1!
1,
13
#476
0#
#478
1#
1:
1A
#480
0!
0#
#482
1#
1:
1A
#484
0#
#485
1!
1,
13
11
#486
1#
1:
1A
1(
#488
0#
#490
0!
1#
1:
1A
#492
0#
#494
1#
1:
1A
#495
1!
b10001010 '
18
b10001010 7
b10001010 0
1,
13
01
#496
0#
0(
#498
1#
1:
1A
#500
0!
0#
#502
1#
1:
1A
#504
0#
#505
1!
08
1,
13
#506
1#
1:
1A
#508
0#
#510
0!
1#
1:
1A
#512
0#
#514
1#
1:
1A
#515
1!
1,
13
#516
0#
#518
1#
1:
1A
#520
0!
0#
#522
1#
1:
1A
#524
0#
#525
1!
1,
13
#526
1#
1:
1A
#528
0#
#530
0!
1#
1:
1A
#532
0#
#534
1#
1:
1A
#535
1!
1,
13
#536
0#
#538
1#
1:
1A
#540
0!
0#
#542
1#
1:
1A
#544
0#
#545
1!
1,
13
#546
1#
1:
1A
#548
0#
#550
0!
1#
1:
1A
#552
0#
#554
1#
1:
1A
#555
1!
1,
13
#556
0#
#558
1#
1:
1A
#560
0!
0#
#562
1#
1:
1A
#564
0#
#565
1!
1,
13
#566
1#
1:
1A
#568
0#
#570
0!
1#
1:
1A
#572
0#
#574
1#
1:
1A
#575
1!
1,
13
11
#576
0#
1(
#578
1#
1:
1A
#580
0!
0#
#582
1#
1:
1A
#584
0#
#585
1!
b10110010 '
18
b10110010 7
b10110010 0
1,
13
01
#586
1#
1:
1A
0(
#588
0#
#590
0!
1#
1:
1A
#592
0#
#594
1#
1:
1A
#595
1!
08
1,
13
#596
0#
#598
1#
1:
1A
#600
0!
0#
#602
1#
1:
1A
#604
0#
#605
1!
1,
13
#606
1#
1:
1A
#608
0#
#610
0!
1#
1:
1A
#612
0#
#614
1#
1:
1A
#615
1!
1,
13
#616
0#
#618
1#
1:
1A
#620
0!
0#
#622
1#
1:
1A
#624
0#
#625
1!
1,
13
11
#626
1#
1:
1A
1(
#628
0#
#630
0!
1#
1:
1A
#632
0#
#634
1#
1:
1A
#635
1!
b1011110 '
18
b1011110 7
b1011110 0
1,
13
01
#636
0#
0(
#638
1#
1:
1A
#640
0!
0#
#642
1#
1:
1A
#644
0#
#645
1!
08
1,
13
#646
1#
1:
1A
#648
0#
#650
0!
1#
1:
1A
#652
0#
#654
1#
1:
1A
#655
1!
1,
13
#656
0#
#658
1#
1:
1A
#660
0!
0#
#662
1#
1:
1A
#664
0#
#665
1!
1,
13
#666
1#
1:
1A
#668
0#
#670
0!
1#
1:
1A
#672
0#
#674
1#
1:
1A
#675
1!
1,
13
#676
0#
#678
1#
1:
1A
#680
0!
0#
#682
1#
1:
1A
#684
0#
#685
1!
1,
13
#686
1#
1:
1A
#688
0#
#690
0!
1#
1:
1A
#692
0#
#694
1#
1:
1A
#695
1!
1,
13
#696
0#
#698
1#
1:
1A
#700
0!
0#
#702
1#
1:
1A
#704
0#
#705
1!
1,
13
11
#706
1#
1:
1A
1(
#708
0#
#710
0!
1#
1:
1A
#712
0#
#714
1#
1:
1A
#715
1!
b10001011 '
18
b10001011 7
b10001011 0
1,
13
01
#716
0#
0(
#718
1#
1:
1A
#720
0!
0#
#722
1#
1:
1A
#724
0#
#725
1!
08
1,
13
#726
1#
1:
1A
#728
0#
#730
0!
1#
1:
1A
#732
0#
#734
1#
1:
1A
#735
1!
1,
13
#736
0#
#738
1#
1:
1A
#740
0!
0#
#742
1#
1:
1A
#744
0#
#745
1!
1,
13
11
#746
1#
1:
1A
1(
#748
0#
#750
0!
1#
1:
1A
#752
0#
#754
1#
1:
1A
#755
1!
b10001100 '
18
b10001100 7
b10001100 0
1,
13
01
#756
0#
0(
#758
1#
1:
1A
#760
0!
0#
#762
1#
1:
1A
#764
0#
#765
1!
08
1,
13
#766
1#
1:
1A
#768
0#
#770
0!
1#
1:
1A
#772
0#
#774
1#
1:
1A
#775
1!
1,
13
#776
0#
#778
1#
1:
1A
#780
0!
0#
#782
1#
1:
1A
#784
0#
#785
1!
1,
13
#786
1#
1:
1A
#788
0#
#790
0!
1#
1:
1A
#792
0#
#794
1#
1:
1A
#795
1!
1,
13
11
#796
0#
1(
#798
1#
1:
1A
#800
0!
0#
#802
1#
1:
1A
#804
0#
#805
1!
b11100 '
18
b11100 7
b11100 0
1,
13
01
#806
1#
1:
1A
0(
#808
0#
#810
0!
1#
1:
1A
#812
0#
#814
1#
1:
1A
#815
1!
08
1,
13
#816
0#
#818
1#
1:
1A
#820
0!
0#
#822
1#
1:
1A
#824
0#
#825
1!
1,
13
#826
1#
1:
1A
#828
0#
#830
0!
1#
1:
1A
#832
0#
#834
1#
1:
1A
#835
1!
1,
13
#836
0#
#838
1#
1:
1A
#840
0!
0#
#842
1#
1:
1A
#844
0#
#845
1!
1,
13
11
#846
1#
1:
1A
1(
#848
0#
#850
0!
1#
1:
1A
#852
0#
#854
1#
1:
1A
#855
1!
b10101000 '
18
b10101000 7
b10101000 0
1,
13
01
#856
0#
0(
#858
1#
1:
1A
#860
0!
0#
#862
1#
1:
1A
#864
0#
#865
1!
08
1,
13
#866
1#
1:
1A
#868
0#
#870
0!
1#
1:
1A
#872
0#
#874
1#
1:
1A
#875
1!
1,
13
#876
0#
#878
1#
1:
1A
#880
0!
0#
#882
1#
1:
1A
#884
0#
#885
1!
1,
13
#886
1#
1:
1A
#888
0#
#890
0!
1#
1:
1A
#892
0#
#894
1#
1:
1A
#895
1!
1,
13
#896
0#
#898
1#
1:
1A
#900
0!
0#
#902
1#
1:
1A
#904
0#
#905
1!
1,
13
#906
1#
1:
1A
#908
0#
#910
0!
1#
1:
1A
#912
0#
#914
1#
1:
1A
#915
1!
1,
13
#916
0#
#918
1#
1:
1A
#920
0!
0#
#922
1#
1:
1A
#924
0#
#925
1!
1,
13
#926
1#
1:
1A
#928
0#
#930
0!
1#
1:
1A
#932
0#
#934
1#
1:
1A
#935
1!
1,
13
11
#936
0#
1(
#938
1#
1:
1A
#940
0!
0#
#942
1#
1:
1A
#944
0#
#945
1!
b11101 '
1$
18
b11101 7
b11101 0
14
1-
1,
13
01
#946
1#
1;
1:
1A
0(
#948
0#
#950
0!
1#
1B
1:
1A
#952
0#
#954
1#
1:
1A
#955
1!
08
1,
13
#956
0#
#958
1#
1:
1A
#960
0!
0#
#962
1#
1:
1A
#964
0#
#965
1!
1,
13
#966
1#
1:
1A
#968
0#
#970
0!
1#
1:
1A
#972
0#
#974
1#
1:
1A
#975
1!
1,
13
#976
0#
#978
1#
1:
1A
#980
0!
0#
#982
1#
1:
1A
#984
0#
#985
1!
1,
13
#986
1#
1:
1A
#988
0#
#990
0!
1#
1:
1A
#992
0#
#994
1#
1:
1A
#995
1!
1,
13
#996
0#
#998
1#
1:
1A
#1000
0!
0#
#1002
1#
1:
1A
#1004
0#
#1005
1!
1,
13
#1006
1#
1:
1A
#1008
0#
#1010
0!
1#
1:
1A
#1012
0#
#1014
1#
1:
1A
#1015
1!
1,
13
#1016
0#
#1018
1#
1:
1A
#1020
0!
0#
#1022
1#
1:
1A
#1024
0#
#1025
1!
1,
13
#1026
1#
1:
1A
#1028
0#
#1030
0!
1#
1:
1A
#1032
0#
#1034
1#
1:
1A
#1035
1!
1,
13
#1036
0#
#1038
1#
1:
1A
#1040
0!
0#
#1042
1#
1:
1A
